{
  "pageNum": 1,
  "pageSize": 4,
  "totalPages": 8,
  "totalElements": 32,
  "isLast": true,
  "histories": [
    {
      "id": 29,
      "type": "충전",
      "status": "구매 확정",
      "name": "포인트 충전",
      "trade": "5000원",
      "receipt": {
        "orderId": "O-1644460169123",
        "tradeAt": "2023.12.20 18:06",
        "amount": "5000"
      }
    },
    {
      "id": 30,
      "type": "충전",
      "status": "취소 완료",
      "name": "포인트 충전",
      "trade": "5000원",
      "receipt": {
        "orderId": "O-1644460169123",
        "tradeAt": "2023.12.20 18:06",
        "amount": "5000"
      }
    },
    {
      "id": 31,
      "type": "충전",
      "status": "취소 완료",
      "name": "포인트 충전",
      "trade": "5000원",
      "receipt": {
        "orderId": "O-1644460169123",
        "tradeAt": "2023.12.20 18:06",
        "amount": "5000"
      }
    },
    {
      "id": 32,
      "type": "충전",
      "status": "결제 완료",
      "name": "포인트 충전",
      "trade": "5000원",
      "receipt": {
        "orderId": "O-1644460169123",
        "tradeAt": "2023.12.20 18:06",
        "amount": "5000"
      }
    }
  ]
}
